                                   Border Properties

1.border-top:12px;
2.border-bottom:12px;
3.border-left:12px;
4.border-right:12px;
5.border:1px solid black;
6.border-collapse:collapse;
7.border-radius:12px;